^C:\Users\Никита\source\repos\massive\massive.vcxproj
C:\Users\Никита\source\repos\massive\Release\massive.ipdb
C:\Users\Никита\source\repos\massive\Release\massive.iobj
^C:\Users\Никита\source\repos\massive\massive.vcxproj
C:\Users\Никита\source\repos\massive\Release\massive.ipdb
C:\Users\Никита\source\repos\massive\Release\massive.iobj
^C:\Users\Никита\source\repos\massive\massive.vcxproj
C:\Users\Никита\source\repos\massive\Release\massive.ipdb
C:\Users\Никита\source\repos\massive\Release\massive.iobj
^C:\Users\Никита\source\repos\massive\massive.vcxproj
C:\Users\Никита\source\repos\massive\Release\massive.ipdb
C:\Users\Никита\source\repos\massive\Release\massive.iobj
^C:\Users\Никита\source\repos\massive\massive.vcxproj
C:\Users\Никита\source\repos\massive\Release\massive.ipdb
C:\Users\Никита\source\repos\massive\Release\massive.iobj
^C:\Users\Никита\source\repos\massive\massive.vcxproj
C:\Users\Никита\source\repos\massive\Release\massive.ipdb
C:\Users\Никита\source\repos\massive\Release\massive.iobj
^C:\Users\Никита\source\repos\massive\massive.vcxproj
C:\Users\Никита\source\repos\massive\Release\massive.ipdb
C:\Users\Никита\source\repos\massive\Release\massive.iobj
^C:\Users\Никита\source\repos\massive\massive.vcxproj
C:\Users\Никита\source\repos\massive\Release\massive.ipdb
C:\Users\Никита\source\repos\massive\Release\massive.iobj
^C:\Users\Никита\source\repos\massive\massive.vcxproj
C:\Users\Никита\source\repos\massive\Release\massive.ipdb
C:\Users\Никита\source\repos\massive\Release\massive.iobj
^C:\Users\Никита\source\repos\massive\massive.vcxproj
C:\Users\Никита\source\repos\massive\Release\massive.ipdb
C:\Users\Никита\source\repos\massive\Release\massive.iobj
^C:\Users\Никита\source\repos\massive\massive.vcxproj
C:\Users\Никита\source\repos\massive\Release\massive.ipdb
C:\Users\Никита\source\repos\massive\Release\massive.iobj
^C:\Users\Никита\source\repos\massive\massive.vcxproj
C:\Users\Никита\source\repos\massive\Release\massive.ipdb
C:\Users\Никита\source\repos\massive\Release\massive.iobj
^C:\Users\Никита\source\repos\massive\massive.vcxproj
C:\Users\Никита\source\repos\massive\Release\massive.ipdb
C:\Users\Никита\source\repos\massive\Release\massive.iobj
^C:\Users\Никита\source\repos\massive\massive.vcxproj
C:\Users\Никита\source\repos\massive\Release\massive.ipdb
C:\Users\Никита\source\repos\massive\Release\massive.iobj
^C:\Users\Никита\source\repos\massive\massive.vcxproj
C:\Users\Никита\source\repos\massive\Release\massive.ipdb
C:\Users\Никита\source\repos\massive\Release\massive.iobj
^C:\Users\Никита\source\repos\massive\massive.vcxproj
C:\Users\Никита\source\repos\massive\Release\massive.ipdb
C:\Users\Никита\source\repos\massive\Release\massive.iobj
^C:\Users\Никита\source\repos\massive\massive.vcxproj
C:\Users\Никита\source\repos\massive\Release\massive.ipdb
C:\Users\Никита\source\repos\massive\Release\massive.iobj
^C:\Users\Никита\source\repos\massive\massive.vcxproj
C:\Users\Никита\source\repos\massive\Release\massive.ipdb
C:\Users\Никита\source\repos\massive\Release\massive.iobj
^C:\Users\Никита\source\repos\massive\massive.vcxproj
C:\Users\Никита\source\repos\massive\Release\massive.ipdb
C:\Users\Никита\source\repos\massive\Release\massive.iobj
^C:\Users\Никита\source\repos\massive\massive.vcxproj
C:\Users\Никита\source\repos\massive\Release\massive.ipdb
C:\Users\Никита\source\repos\massive\Release\massive.iobj
^C:\Users\Никита\source\repos\massive\massive.vcxproj
C:\Users\Никита\source\repos\massive\Release\massive.ipdb
C:\Users\Никита\source\repos\massive\Release\massive.iobj
^C:\Users\Никита\source\repos\massive\massive.vcxproj
C:\Users\Никита\source\repos\massive\Release\massive.ipdb
C:\Users\Никита\source\repos\massive\Release\massive.iobj
^C:\Users\Никита\source\repos\massive\massive.vcxproj
C:\Users\Никита\source\repos\massive\Release\massive.ipdb
C:\Users\Никита\source\repos\massive\Release\massive.iobj
^C:\Users\Никита\source\repos\massive\massive.vcxproj
C:\Users\Никита\source\repos\massive\Release\massive.ipdb
C:\Users\Никита\source\repos\massive\Release\massive.iobj
^C:\Users\Никита\source\repos\massive\massive.vcxproj
C:\Users\Никита\source\repos\massive\Release\massive.ipdb
C:\Users\Никита\source\repos\massive\Release\massive.iobj
^C:\Users\Никита\source\repos\massive\massive.vcxproj
C:\Users\Никита\source\repos\massive\Release\massive.ipdb
C:\Users\Никита\source\repos\massive\Release\massive.iobj
^C:\Users\Никита\source\repos\massive\massive.vcxproj
C:\Users\Никита\source\repos\massive\Release\massive.ipdb
C:\Users\Никита\source\repos\massive\Release\massive.iobj
^C:\Users\Никита\source\repos\massive\massive.vcxproj
C:\Users\Никита\source\repos\massive\Release\massive.ipdb
C:\Users\Никита\source\repos\massive\Release\massive.iobj
^C:\Users\Никита\source\repos\massive\massive.vcxproj
C:\Users\Никита\source\repos\massive\Release\massive.ipdb
C:\Users\Никита\source\repos\massive\Release\massive.iobj
^C:\Users\Никита\source\repos\massive\massive.vcxproj
C:\Users\Никита\source\repos\massive\Release\massive.ipdb
C:\Users\Никита\source\repos\massive\Release\massive.iobj
^C:\Users\Никита\source\repos\massive\massive.vcxproj
C:\Users\Никита\source\repos\massive\Release\massive.ipdb
C:\Users\Никита\source\repos\massive\Release\massive.iobj
^C:\Users\Никита\source\repos\massive\massive.vcxproj
C:\Users\Никита\source\repos\massive\Release\massive.ipdb
C:\Users\Никита\source\repos\massive\Release\massive.iobj
^C:\Users\Никита\source\repos\massive\massive.vcxproj
C:\Users\Никита\source\repos\massive\Release\massive.ipdb
C:\Users\Никита\source\repos\massive\Release\massive.iobj
^C:\Users\Никита\source\repos\massive\massive.vcxproj
C:\Users\Никита\source\repos\massive\Release\massive.ipdb
C:\Users\Никита\source\repos\massive\Release\massive.iobj
^C:\Users\Никита\source\repos\massive\massive.vcxproj
C:\Users\Никита\source\repos\massive\Release\massive.ipdb
C:\Users\Никита\source\repos\massive\Release\massive.iobj
^C:\Users\Никита\source\repos\massive\massive.vcxproj
C:\Users\Никита\source\repos\massive\Release\massive.ipdb
C:\Users\Никита\source\repos\massive\Release\massive.iobj
^C:\Users\Никита\source\repos\massive\massive.vcxproj
C:\Users\Никита\source\repos\massive\Release\massive.ipdb
C:\Users\Никита\source\repos\massive\Release\massive.iobj
^C:\Users\Никита\source\repos\massive\massive.vcxproj
C:\Users\Никита\source\repos\massive\Release\massive.ipdb
C:\Users\Никита\source\repos\massive\Release\massive.iobj
^C:\Users\Никита\source\repos\massive\massive.vcxproj
C:\Users\Никита\source\repos\massive\Release\massive.ipdb
C:\Users\Никита\source\repos\massive\Release\massive.iobj
^C:\Users\Никита\source\repos\massive\massive.vcxproj
C:\Users\Никита\source\repos\massive\Release\massive.ipdb
C:\Users\Никита\source\repos\massive\Release\massive.iobj
^C:\Users\Никита\source\repos\massive\massive.vcxproj
C:\Users\Никита\source\repos\massive\Release\massive.ipdb
C:\Users\Никита\source\repos\massive\Release\massive.iobj
^C:\Users\Никита\source\repos\massive\massive.vcxproj
C:\Users\Никита\source\repos\massive\Release\massive.ipdb
C:\Users\Никита\source\repos\massive\Release\massive.iobj
^C:\Users\Никита\source\repos\massive\massive.vcxproj
C:\Users\Никита\source\repos\massive\Release\massive.ipdb
C:\Users\Никита\source\repos\massive\Release\massive.iobj
^C:\Users\Никита\source\repos\massive\massive.vcxproj
C:\Users\Никита\source\repos\massive\Release\massive.ipdb
C:\Users\Никита\source\repos\massive\Release\massive.iobj
^C:\Users\Никита\source\repos\massive\massive.vcxproj
C:\Users\Никита\source\repos\massive\Release\massive.ipdb
C:\Users\Никита\source\repos\massive\Release\massive.iobj
^C:\Users\Никита\source\repos\massive\massive.vcxproj
C:\Users\Никита\source\repos\massive\Release\massive.ipdb
C:\Users\Никита\source\repos\massive\Release\massive.iobj
^C:\Users\Никита\source\repos\massive\massive.vcxproj
C:\Users\Никита\source\repos\massive\Release\massive.ipdb
C:\Users\Никита\source\repos\massive\Release\massive.iobj
^C:\Users\Никита\source\repos\massive\massive.vcxproj
C:\Users\Никита\source\repos\massive\Release\massive.ipdb
C:\Users\Никита\source\repos\massive\Release\massive.iobj
^C:\Users\Никита\source\repos\massive\massive.vcxproj
C:\Users\Никита\source\repos\massive\Release\massive.ipdb
C:\Users\Никита\source\repos\massive\Release\massive.iobj
^C:\Users\Никита\source\repos\massive\massive.vcxproj
C:\Users\Никита\source\repos\massive\Release\massive.ipdb
C:\Users\Никита\source\repos\massive\Release\massive.iobj
^C:\Users\Никита\source\repos\massive\massive.vcxproj
C:\Users\Никита\source\repos\massive\Release\massive.ipdb
C:\Users\Никита\source\repos\massive\Release\massive.iobj
^C:\Users\Никита\source\repos\massive\massive.vcxproj
C:\Users\Никита\source\repos\massive\Release\massive.ipdb
C:\Users\Никита\source\repos\massive\Release\massive.iobj
^C:\Users\Никита\source\repos\massive\massive.vcxproj
C:\Users\Никита\source\repos\massive\Release\massive.ipdb
C:\Users\Никита\source\repos\massive\Release\massive.iobj
^C:\Users\Никита\source\repos\massive\massive.vcxproj
C:\Users\Никита\source\repos\massive\Release\massive.ipdb
C:\Users\Никита\source\repos\massive\Release\massive.iobj
^C:\Users\Никита\source\repos\massive\massive.vcxproj
C:\Users\Никита\source\repos\massive\Release\massive.ipdb
C:\Users\Никита\source\repos\massive\Release\massive.iobj
^C:\Users\Никита\source\repos\massive\massive.vcxproj
C:\Users\Никита\source\repos\massive\Release\massive.ipdb
C:\Users\Никита\source\repos\massive\Release\massive.iobj
^C:\Users\Никита\source\repos\massive\massive.vcxproj
C:\Users\Никита\source\repos\massive\Release\massive.ipdb
C:\Users\Никита\source\repos\massive\Release\massive.iobj
^C:\Users\Никита\source\repos\massive\massive.vcxproj
C:\Users\Никита\source\repos\massive\Release\massive.ipdb
C:\Users\Никита\source\repos\massive\Release\massive.iobj
^C:\Users\Никита\source\repos\massive\massive.vcxproj
C:\Users\Никита\source\repos\massive\Release\massive.ipdb
C:\Users\Никита\source\repos\massive\Release\massive.iobj
^C:\Users\Никита\source\repos\massive\massive.vcxproj
C:\Users\Никита\source\repos\massive\Release\massive.ipdb
C:\Users\Никита\source\repos\massive\Release\massive.iobj
^C:\Users\Никита\source\repos\massive\massive.vcxproj
C:\Users\Никита\source\repos\massive\Release\massive.ipdb
C:\Users\Никита\source\repos\massive\Release\massive.iobj
^C:\Users\Никита\source\repos\massive\massive.vcxproj
C:\Users\Никита\source\repos\massive\Release\massive.ipdb
C:\Users\Никита\source\repos\massive\Release\massive.iobj
^C:\Users\Никита\source\repos\massive\massive.vcxproj
C:\Users\Никита\source\repos\massive\Release\massive.ipdb
C:\Users\Никита\source\repos\massive\Release\massive.iobj
^C:\Users\Никита\source\repos\massive\massive.vcxproj
C:\Users\Никита\source\repos\massive\Release\massive.ipdb
C:\Users\Никита\source\repos\massive\Release\massive.iobj
^C:\Users\Никита\source\repos\massive\massive.vcxproj
C:\Users\Никита\source\repos\massive\Release\massive.ipdb
C:\Users\Никита\source\repos\massive\Release\massive.iobj
^C:\Users\Никита\source\repos\massive\massive.vcxproj
C:\Users\Никита\source\repos\massive\Release\massive.ipdb
C:\Users\Никита\source\repos\massive\Release\massive.iobj
^C:\Users\Никита\source\repos\massive\massive.vcxproj
C:\Users\Никита\source\repos\massive\Release\massive.ipdb
C:\Users\Никита\source\repos\massive\Release\massive.iobj
^C:\Users\Никита\source\repos\massive\massive.vcxproj
C:\Users\Никита\source\repos\massive\Release\massive.ipdb
C:\Users\Никита\source\repos\massive\Release\massive.iobj
^C:\Users\Никита\source\repos\massive\massive.vcxproj
C:\Users\Никита\source\repos\massive\Release\massive.ipdb
C:\Users\Никита\source\repos\massive\Release\massive.iobj
